{
    "key": "group_5e774c47d552e",
    "title": "[OPTIONS] Site Settings",
    "fields": [
        {
            "key": "field_5e7751bd2243b",
            "label": "Social Icons",
            "name": "",
            "type": "tab",
            "instructions": "",
            "required": 0,
            "conditional_logic": 0,
            "wrapper": {
                "width": "",
                "class": "",
                "id": ""
            },
            "placement": "top",
            "endpoint": 0
        },
        {
            "key": "field_5e7751c62243c",
            "label": "Social Icons",
            "name": "social_icons",
            "type": "clone",
            "instructions": "",
            "required": 0,
            "conditional_logic": 0,
            "wrapper": {
                "width": "",
                "class": "",
                "id": ""
            },
            "clone": [
                "group_5e77504d35219"
            ],
            "display": "group",
            "layout": "block",
            "prefix_label": 1,
            "prefix_name": 1
        },
        {
            "key": "field_5e83766cff62b",
            "label": "Images",
            "name": "",
            "type": "tab",
            "instructions": "",
            "required": 0,
            "conditional_logic": 0,
            "wrapper": {
                "width": "",
                "class": "",
                "id": ""
            },
            "placement": "top",
            "endpoint": 0
        },
        {
            "key": "field_5e837669ff62a",
            "label": "Images",
            "name": "images",
            "type": "clone",
            "instructions": "",
            "required": 0,
            "conditional_logic": 0,
            "wrapper": {
                "width": "",
                "class": "",
                "id": ""
            },
            "clone": [
                "group_5e837651d46cc"
            ],
            "display": "group",
            "layout": "block",
            "prefix_label": 1,
            "prefix_name": 1
        }
    ],
    "location": [
        [
            {
                "param": "options_page",
                "operator": "==",
                "value": "cloud1500-site-settings"
            }
        ]
    ],
    "menu_order": 0,
    "position": "normal",
    "style": "seamless",
    "label_placement": "top",
    "instruction_placement": "label",
    "hide_on_screen": "",
    "active": 1,
    "description": "",
    "modified": 1585673870
}